{
  "version": "0.1",
  "language": "en",
  "dictionaries": [
     "en_us",
     "softwareTerms",
     "computing-acronyms",
  ],
  "words": [
    "ClearCode",
    "daipom",
    "kenhys",
    "Daijiro",
    "Fukuda",
    "Kentaro",
    "Hayashi",

    "Fluentd",
    "fluentd",
    "YJIT",
    "CNCF",
    "sysconfig",
    "libjemalloc",
    "fluentdopt",
    "fluentdwinsvc",
    "winsvc",
    "aarch",
      
  ],
}
